*ERROR* 	v1.7.6.0	2019/09/12 - 08:06:35: Link to database cannot be established: SQLSTATE[42000] [1203] User afrissim_herve already has more than 'max_user_connections' active connections at line 127 in file classes/db/DbPDO.php
*ERROR* 	v1.7.6.0	2019/09/12 - 08:06:35: Link to database cannot be established: SQLSTATE[42000] [1203] User afrissim_herve already has more than 'max_user_connections' active connections at line 127 in file classes/db/DbPDO.php
*ERROR* 	v1.7.6.0	2019/09/12 - 08:06:35: Link to database cannot be established: SQLSTATE[42000] [1203] User afrissim_herve already has more than 'max_user_connections' active connections at line 127 in file classes/db/DbPDO.php
*ERROR* 	v1.7.6.0	2019/09/12 - 08:14:35: Link to database cannot be established: SQLSTATE[42000] [1203] User afrissim_herve already has more than 'max_user_connections' active connections at line 127 in file classes/db/DbPDO.php
*ERROR* 	v1.7.6.0	2019/09/12 - 08:14:55: Link to database cannot be established: SQLSTATE[42000] [1203] User afrissim_herve already has more than 'max_user_connections' active connections at line 127 in file classes/db/DbPDO.php
*ERROR* 	v1.7.6.0	2019/09/12 - 08:20:20: Link to database cannot be established: SQLSTATE[42000] [1203] User afrissim_herve already has more than 'max_user_connections' active connections at line 127 in file classes/db/DbPDO.php
*ERROR* 	v1.7.6.0	2019/09/12 - 08:20:20: Link to database cannot be established: SQLSTATE[42000] [1203] User afrissim_herve already has more than 'max_user_connections' active connections at line 127 in file classes/db/DbPDO.php
*ERROR* 	v1.7.6.0	2019/09/12 - 08:52:18: Link to database cannot be established: SQLSTATE[42000] [1203] User afrissim_herve already has more than 'max_user_connections' active connections at line 127 in file classes/db/DbPDO.php
*ERROR* 	v1.7.6.0	2019/09/12 - 08:52:18: Link to database cannot be established: SQLSTATE[42000] [1203] User afrissim_herve already has more than 'max_user_connections' active connections at line 127 in file classes/db/DbPDO.php
*ERROR* 	v1.7.6.0	2019/09/12 - 08:52:18: Link to database cannot be established: SQLSTATE[42000] [1203] User afrissim_herve already has more than 'max_user_connections' active connections at line 127 in file classes/db/DbPDO.php
*ERROR* 	v1.7.6.0	2019/09/12 - 10:24:21: Link to database cannot be established: SQLSTATE[42000] [1203] User afrissim_herve already has more than 'max_user_connections' active connections at line 127 in file classes/db/DbPDO.php
*ERROR* 	v1.7.6.0	2019/09/12 - 11:10:38: Link to database cannot be established: SQLSTATE[42000] [1203] User afrissim_herve already has more than 'max_user_connections' active connections at line 127 in file classes/db/DbPDO.php
*ERROR* 	v1.7.6.0	2019/09/12 - 11:10:39: Link to database cannot be established: SQLSTATE[42000] [1203] User afrissim_herve already has more than 'max_user_connections' active connections at line 127 in file classes/db/DbPDO.php
*ERROR* 	v1.7.6.0	2019/09/12 - 11:11:09: Link to database cannot be established: SQLSTATE[42000] [1203] User afrissim_herve already has more than 'max_user_connections' active connections at line 127 in file classes/db/DbPDO.php
*ERROR* 	v1.7.6.0	2019/09/12 - 11:11:10: Link to database cannot be established: SQLSTATE[42000] [1203] User afrissim_herve already has more than 'max_user_connections' active connections at line 127 in file classes/db/DbPDO.php
*ERROR* 	v1.7.6.0	2019/09/12 - 11:11:13: Link to database cannot be established: SQLSTATE[42000] [1203] User afrissim_herve already has more than 'max_user_connections' active connections at line 127 in file classes/db/DbPDO.php
*ERROR* 	v1.7.6.0	2019/09/12 - 11:11:14: Link to database cannot be established: SQLSTATE[42000] [1203] User afrissim_herve already has more than 'max_user_connections' active connections at line 127 in file classes/db/DbPDO.php
*ERROR* 	v1.7.6.0	2019/09/12 - 11:13:34: Link to database cannot be established: SQLSTATE[42000] [1203] User afrissim_herve already has more than 'max_user_connections' active connections at line 127 in file classes/db/DbPDO.php
*ERROR* 	v1.7.6.0	2019/09/12 - 13:42:25: Link to database cannot be established: SQLSTATE[42000] [1203] User afrissim_herve already has more than 'max_user_connections' active connections at line 127 in file classes/db/DbPDO.php
*ERROR* 	v1.7.6.0	2019/09/12 - 13:47:01: Link to database cannot be established: SQLSTATE[42000] [1203] User afrissim_herve already has more than 'max_user_connections' active connections at line 127 in file classes/db/DbPDO.php
*ERROR* 	v1.7.6.0	2019/09/12 - 13:47:02: Link to database cannot be established: SQLSTATE[42000] [1203] User afrissim_herve already has more than 'max_user_connections' active connections at line 127 in file classes/db/DbPDO.php
*ERROR* 	v1.7.6.0	2019/09/12 - 13:47:09: Link to database cannot be established: SQLSTATE[42000] [1203] User afrissim_herve already has more than 'max_user_connections' active connections at line 127 in file classes/db/DbPDO.php
*ERROR* 	v1.7.6.0	2019/09/12 - 13:58:10: Link to database cannot be established: SQLSTATE[42000] [1203] User afrissim_herve already has more than 'max_user_connections' active connections at line 127 in file classes/db/DbPDO.php
*ERROR* 	v1.7.6.0	2019/09/12 - 13:58:36: Link to database cannot be established: SQLSTATE[42000] [1203] User afrissim_herve already has more than 'max_user_connections' active connections at line 127 in file classes/db/DbPDO.php
*ERROR* 	v1.7.6.0	2019/09/12 - 13:58:41: Link to database cannot be established: SQLSTATE[42000] [1203] User afrissim_herve already has more than 'max_user_connections' active connections at line 127 in file classes/db/DbPDO.php
*ERROR* 	v1.7.6.0	2019/09/12 - 14:09:11: Link to database cannot be established: SQLSTATE[42000] [1203] User afrissim_herve already has more than 'max_user_connections' active connections at line 127 in file classes/db/DbPDO.php
*ERROR* 	v1.7.6.0	2019/09/12 - 14:09:11: Link to database cannot be established: SQLSTATE[42000] [1203] User afrissim_herve already has more than 'max_user_connections' active connections at line 127 in file classes/db/DbPDO.php
*ERROR* 	v1.7.6.0	2019/09/12 - 14:09:11: Link to database cannot be established: SQLSTATE[42000] [1203] User afrissim_herve already has more than 'max_user_connections' active connections at line 127 in file classes/db/DbPDO.php
*ERROR* 	v1.7.6.0	2019/09/12 - 14:09:11: Link to database cannot be established: SQLSTATE[42000] [1203] User afrissim_herve already has more than 'max_user_connections' active connections at line 127 in file classes/db/DbPDO.php
*ERROR* 	v1.7.6.0	2019/09/12 - 14:09:11: Link to database cannot be established: SQLSTATE[42000] [1203] User afrissim_herve already has more than 'max_user_connections' active connections at line 127 in file classes/db/DbPDO.php
*ERROR* 	v1.7.6.0	2019/09/12 - 14:09:11: Link to database cannot be established: SQLSTATE[42000] [1203] User afrissim_herve already has more than 'max_user_connections' active connections at line 127 in file classes/db/DbPDO.php
*ERROR* 	v1.7.6.0	2019/09/12 - 14:09:11: Link to database cannot be established: SQLSTATE[42000] [1203] User afrissim_herve already has more than 'max_user_connections' active connections at line 127 in file classes/db/DbPDO.php
*ERROR* 	v1.7.6.0	2019/09/12 - 14:09:11: Link to database cannot be established: SQLSTATE[42000] [1203] User afrissim_herve already has more than 'max_user_connections' active connections at line 127 in file classes/db/DbPDO.php
*ERROR* 	v1.7.6.0	2019/09/12 - 14:09:11: Link to database cannot be established: SQLSTATE[42000] [1203] User afrissim_herve already has more than 'max_user_connections' active connections at line 127 in file classes/db/DbPDO.php
*ERROR* 	v1.7.6.0	2019/09/12 - 14:09:11: Link to database cannot be established: SQLSTATE[42000] [1203] User afrissim_herve already has more than 'max_user_connections' active connections at line 127 in file classes/db/DbPDO.php
*ERROR* 	v1.7.6.0	2019/09/12 - 14:09:11: Link to database cannot be established: SQLSTATE[42000] [1203] User afrissim_herve already has more than 'max_user_connections' active connections at line 127 in file classes/db/DbPDO.php
*ERROR* 	v1.7.6.0	2019/09/12 - 14:09:11: Link to database cannot be established: SQLSTATE[42000] [1203] User afrissim_herve already has more than 'max_user_connections' active connections at line 127 in file classes/db/DbPDO.php
*ERROR* 	v1.7.6.0	2019/09/12 - 14:09:11: Link to database cannot be established: SQLSTATE[42000] [1203] User afrissim_herve already has more than 'max_user_connections' active connections at line 127 in file classes/db/DbPDO.php
*ERROR* 	v1.7.6.0	2019/09/12 - 14:09:11: Link to database cannot be established: SQLSTATE[42000] [1203] User afrissim_herve already has more than 'max_user_connections' active connections at line 127 in file classes/db/DbPDO.php
*ERROR* 	v1.7.6.0	2019/09/12 - 14:09:26: Link to database cannot be established: SQLSTATE[42000] [1203] User afrissim_herve already has more than 'max_user_connections' active connections at line 127 in file classes/db/DbPDO.php
*ERROR* 	v1.7.6.0	2019/09/12 - 14:09:27: Link to database cannot be established: SQLSTATE[42000] [1203] User afrissim_herve already has more than 'max_user_connections' active connections at line 127 in file classes/db/DbPDO.php
*ERROR* 	v1.7.6.0	2019/09/12 - 14:09:27: Link to database cannot be established: SQLSTATE[42000] [1203] User afrissim_herve already has more than 'max_user_connections' active connections at line 127 in file classes/db/DbPDO.php
*ERROR* 	v1.7.6.0	2019/09/12 - 14:09:27: Link to database cannot be established: SQLSTATE[42000] [1203] User afrissim_herve already has more than 'max_user_connections' active connections at line 127 in file classes/db/DbPDO.php
*ERROR* 	v1.7.6.0	2019/09/12 - 14:09:27: Link to database cannot be established: SQLSTATE[42000] [1203] User afrissim_herve already has more than 'max_user_connections' active connections at line 127 in file classes/db/DbPDO.php
*ERROR* 	v1.7.6.0	2019/09/12 - 14:09:27: Link to database cannot be established: SQLSTATE[42000] [1203] User afrissim_herve already has more than 'max_user_connections' active connections at line 127 in file classes/db/DbPDO.php
*ERROR* 	v1.7.6.0	2019/09/12 - 14:09:27: Link to database cannot be established: SQLSTATE[42000] [1203] User afrissim_herve already has more than 'max_user_connections' active connections at line 127 in file classes/db/DbPDO.php
*ERROR* 	v1.7.6.0	2019/09/12 - 14:09:27: Link to database cannot be established: SQLSTATE[42000] [1203] User afrissim_herve already has more than 'max_user_connections' active connections at line 127 in file classes/db/DbPDO.php
*ERROR* 	v1.7.6.0	2019/09/12 - 14:09:27: Link to database cannot be established: SQLSTATE[42000] [1203] User afrissim_herve already has more than 'max_user_connections' active connections at line 127 in file classes/db/DbPDO.php
*ERROR* 	v1.7.6.0	2019/09/12 - 14:09:27: Link to database cannot be established: SQLSTATE[42000] [1203] User afrissim_herve already has more than 'max_user_connections' active connections at line 127 in file classes/db/DbPDO.php
*ERROR* 	v1.7.6.0	2019/09/12 - 14:09:27: Link to database cannot be established: SQLSTATE[42000] [1203] User afrissim_herve already has more than 'max_user_connections' active connections at line 127 in file classes/db/DbPDO.php
*ERROR* 	v1.7.6.0	2019/09/12 - 14:09:27: Link to database cannot be established: SQLSTATE[42000] [1203] User afrissim_herve already has more than 'max_user_connections' active connections at line 127 in file classes/db/DbPDO.php
*ERROR* 	v1.7.6.0	2019/09/12 - 14:09:27: Link to database cannot be established: SQLSTATE[42000] [1203] User afrissim_herve already has more than 'max_user_connections' active connections at line 127 in file classes/db/DbPDO.php
*ERROR* 	v1.7.6.0	2019/09/12 - 14:09:27: Link to database cannot be established: SQLSTATE[42000] [1203] User afrissim_herve already has more than 'max_user_connections' active connections at line 127 in file classes/db/DbPDO.php
*ERROR* 	v1.7.6.0	2019/09/12 - 14:09:27: Link to database cannot be established: SQLSTATE[42000] [1203] User afrissim_herve already has more than 'max_user_connections' active connections at line 127 in file classes/db/DbPDO.php
*ERROR* 	v1.7.6.0	2019/09/12 - 14:09:37: Link to database cannot be established: SQLSTATE[42000] [1203] User afrissim_herve already has more than 'max_user_connections' active connections at line 127 in file classes/db/DbPDO.php
*ERROR* 	v1.7.6.0	2019/09/12 - 14:09:37: Link to database cannot be established: SQLSTATE[42000] [1203] User afrissim_herve already has more than 'max_user_connections' active connections at line 127 in file classes/db/DbPDO.php
*ERROR* 	v1.7.6.0	2019/09/12 - 14:09:37: Link to database cannot be established: SQLSTATE[42000] [1203] User afrissim_herve already has more than 'max_user_connections' active connections at line 127 in file classes/db/DbPDO.php
*ERROR* 	v1.7.6.0	2019/09/12 - 14:09:37: Link to database cannot be established: SQLSTATE[42000] [1203] User afrissim_herve already has more than 'max_user_connections' active connections at line 127 in file classes/db/DbPDO.php
*ERROR* 	v1.7.6.0	2019/09/12 - 14:09:37: Link to database cannot be established: SQLSTATE[42000] [1203] User afrissim_herve already has more than 'max_user_connections' active connections at line 127 in file classes/db/DbPDO.php
*ERROR* 	v1.7.6.0	2019/09/12 - 14:09:37: Link to database cannot be established: SQLSTATE[42000] [1203] User afrissim_herve already has more than 'max_user_connections' active connections at line 127 in file classes/db/DbPDO.php
*ERROR* 	v1.7.6.0	2019/09/12 - 14:09:37: Link to database cannot be established: SQLSTATE[42000] [1203] User afrissim_herve already has more than 'max_user_connections' active connections at line 127 in file classes/db/DbPDO.php
*ERROR* 	v1.7.6.0	2019/09/12 - 14:09:37: Link to database cannot be established: SQLSTATE[42000] [1203] User afrissim_herve already has more than 'max_user_connections' active connections at line 127 in file classes/db/DbPDO.php
*ERROR* 	v1.7.6.0	2019/09/12 - 14:09:37: Link to database cannot be established: SQLSTATE[42000] [1203] User afrissim_herve already has more than 'max_user_connections' active connections at line 127 in file classes/db/DbPDO.php
*ERROR* 	v1.7.6.0	2019/09/12 - 14:09:38: Link to database cannot be established: SQLSTATE[42000] [1203] User afrissim_herve already has more than 'max_user_connections' active connections at line 127 in file classes/db/DbPDO.php
*ERROR* 	v1.7.6.0	2019/09/12 - 14:09:38: Link to database cannot be established: SQLSTATE[42000] [1203] User afrissim_herve already has more than 'max_user_connections' active connections at line 127 in file classes/db/DbPDO.php
*ERROR* 	v1.7.6.0	2019/09/12 - 14:09:38: Link to database cannot be established: SQLSTATE[42000] [1203] User afrissim_herve already has more than 'max_user_connections' active connections at line 127 in file classes/db/DbPDO.php
*ERROR* 	v1.7.6.0	2019/09/12 - 14:09:38: Link to database cannot be established: SQLSTATE[42000] [1203] User afrissim_herve already has more than 'max_user_connections' active connections at line 127 in file classes/db/DbPDO.php
*ERROR* 	v1.7.6.0	2019/09/12 - 14:09:38: Link to database cannot be established: SQLSTATE[42000] [1203] User afrissim_herve already has more than 'max_user_connections' active connections at line 127 in file classes/db/DbPDO.php
*ERROR* 	v1.7.6.0	2019/09/12 - 14:09:38: Link to database cannot be established: SQLSTATE[42000] [1203] User afrissim_herve already has more than 'max_user_connections' active connections at line 127 in file classes/db/DbPDO.php
*ERROR* 	v1.7.6.0	2019/09/12 - 14:16:10: Link to database cannot be established: SQLSTATE[42000] [1203] User afrissim_herve already has more than 'max_user_connections' active connections at line 127 in file classes/db/DbPDO.php
*ERROR* 	v1.7.6.0	2019/09/12 - 14:16:10: Link to database cannot be established: SQLSTATE[42000] [1203] User afrissim_herve already has more than 'max_user_connections' active connections at line 127 in file classes/db/DbPDO.php
*ERROR* 	v1.7.6.0	2019/09/12 - 14:20:57: Link to database cannot be established: SQLSTATE[42000] [1203] User afrissim_herve already has more than 'max_user_connections' active connections at line 127 in file classes/db/DbPDO.php
*ERROR* 	v1.7.6.0	2019/09/12 - 14:20:57: Link to database cannot be established: SQLSTATE[42000] [1203] User afrissim_herve already has more than 'max_user_connections' active connections at line 127 in file classes/db/DbPDO.php
*ERROR* 	v1.7.6.0	2019/09/12 - 14:23:01: Link to database cannot be established: SQLSTATE[42000] [1203] User afrissim_herve already has more than 'max_user_connections' active connections at line 127 in file classes/db/DbPDO.php
*ERROR* 	v1.7.6.0	2019/09/12 - 14:23:01: Link to database cannot be established: SQLSTATE[42000] [1203] User afrissim_herve already has more than 'max_user_connections' active connections at line 127 in file classes/db/DbPDO.php
*ERROR* 	v1.7.6.0	2019/09/12 - 14:23:01: Link to database cannot be established: SQLSTATE[42000] [1203] User afrissim_herve already has more than 'max_user_connections' active connections at line 127 in file classes/db/DbPDO.php
*ERROR* 	v1.7.6.0	2019/09/12 - 14:23:01: Link to database cannot be established: SQLSTATE[42000] [1203] User afrissim_herve already has more than 'max_user_connections' active connections at line 127 in file classes/db/DbPDO.php
*ERROR* 	v1.7.6.0	2019/09/12 - 14:23:01: Link to database cannot be established: SQLSTATE[42000] [1203] User afrissim_herve already has more than 'max_user_connections' active connections at line 127 in file classes/db/DbPDO.php
*ERROR* 	v1.7.6.0	2019/09/12 - 14:23:01: Link to database cannot be established: SQLSTATE[42000] [1203] User afrissim_herve already has more than 'max_user_connections' active connections at line 127 in file classes/db/DbPDO.php
*ERROR* 	v1.7.6.0	2019/09/12 - 14:26:08: Link to database cannot be established: SQLSTATE[42000] [1203] User afrissim_herve already has more than 'max_user_connections' active connections at line 127 in file classes/db/DbPDO.php
*ERROR* 	v1.7.6.0	2019/09/12 - 14:27:05: Link to database cannot be established: SQLSTATE[HY000] [1130] Host 'mocha3028.mochahost.com' is not allowed to connect to this MySQL server at line 127 in file classes/db/DbPDO.php
*ERROR* 	v1.7.6.0	2019/09/12 - 14:27:18: Link to database cannot be established: SQLSTATE[42000] [1203] User afrissim_herve already has more than 'max_user_connections' active connections at line 127 in file classes/db/DbPDO.php
*ERROR* 	v1.7.6.0	2019/09/12 - 14:27:18: Link to database cannot be established: SQLSTATE[42000] [1203] User afrissim_herve already has more than 'max_user_connections' active connections at line 127 in file classes/db/DbPDO.php
*ERROR* 	v1.7.6.0	2019/09/12 - 14:27:18: Link to database cannot be established: SQLSTATE[42000] [1203] User afrissim_herve already has more than 'max_user_connections' active connections at line 127 in file classes/db/DbPDO.php
*ERROR* 	v1.7.6.0	2019/09/12 - 14:27:18: Link to database cannot be established: SQLSTATE[42000] [1203] User afrissim_herve already has more than 'max_user_connections' active connections at line 127 in file classes/db/DbPDO.php
*ERROR* 	v1.7.6.0	2019/09/12 - 14:27:18: Link to database cannot be established: SQLSTATE[42000] [1203] User afrissim_herve already has more than 'max_user_connections' active connections at line 127 in file classes/db/DbPDO.php
*ERROR* 	v1.7.6.0	2019/09/12 - 14:27:18: Link to database cannot be established: SQLSTATE[42000] [1203] User afrissim_herve already has more than 'max_user_connections' active connections at line 127 in file classes/db/DbPDO.php
*ERROR* 	v1.7.6.0	2019/09/12 - 14:27:18: Link to database cannot be established: SQLSTATE[42000] [1203] User afrissim_herve already has more than 'max_user_connections' active connections at line 127 in file classes/db/DbPDO.php
*ERROR* 	v1.7.6.0	2019/09/12 - 14:27:18: Link to database cannot be established: SQLSTATE[42000] [1203] User afrissim_herve already has more than 'max_user_connections' active connections at line 127 in file classes/db/DbPDO.php
*ERROR* 	v1.7.6.0	2019/09/12 - 14:27:18: Link to database cannot be established: SQLSTATE[42000] [1203] User afrissim_herve already has more than 'max_user_connections' active connections at line 127 in file classes/db/DbPDO.php
*ERROR* 	v1.7.6.0	2019/09/12 - 14:27:18: Link to database cannot be established: SQLSTATE[42000] [1203] User afrissim_herve already has more than 'max_user_connections' active connections at line 127 in file classes/db/DbPDO.php
*ERROR* 	v1.7.6.0	2019/09/12 - 14:27:18: Link to database cannot be established: SQLSTATE[42000] [1203] User afrissim_herve already has more than 'max_user_connections' active connections at line 127 in file classes/db/DbPDO.php
*ERROR* 	v1.7.6.0	2019/09/12 - 14:27:18: Link to database cannot be established: SQLSTATE[42000] [1203] User afrissim_herve already has more than 'max_user_connections' active connections at line 127 in file classes/db/DbPDO.php
*ERROR* 	v1.7.6.0	2019/09/12 - 14:27:18: Link to database cannot be established: SQLSTATE[42000] [1203] User afrissim_herve already has more than 'max_user_connections' active connections at line 127 in file classes/db/DbPDO.php
*ERROR* 	v1.7.6.0	2019/09/12 - 14:27:18: Link to database cannot be established: SQLSTATE[42000] [1203] User afrissim_herve already has more than 'max_user_connections' active connections at line 127 in file classes/db/DbPDO.php
*ERROR* 	v1.7.6.0	2019/09/12 - 14:27:18: Link to database cannot be established: SQLSTATE[42000] [1203] User afrissim_herve already has more than 'max_user_connections' active connections at line 127 in file classes/db/DbPDO.php
*ERROR* 	v1.7.6.0	2019/09/12 - 14:27:38: Link to database cannot be established: SQLSTATE[42000] [1203] User afrissim_herve already has more than 'max_user_connections' active connections at line 127 in file classes/db/DbPDO.php
*ERROR* 	v1.7.6.0	2019/09/12 - 14:27:38: Link to database cannot be established: SQLSTATE[42000] [1203] User afrissim_herve already has more than 'max_user_connections' active connections at line 127 in file classes/db/DbPDO.php
*ERROR* 	v1.7.6.0	2019/09/12 - 14:27:38: Link to database cannot be established: SQLSTATE[42000] [1203] User afrissim_herve already has more than 'max_user_connections' active connections at line 127 in file classes/db/DbPDO.php
*ERROR* 	v1.7.6.0	2019/09/12 - 14:27:38: Link to database cannot be established: SQLSTATE[42000] [1203] User afrissim_herve already has more than 'max_user_connections' active connections at line 127 in file classes/db/DbPDO.php
*ERROR* 	v1.7.6.0	2019/09/12 - 14:27:38: Link to database cannot be established: SQLSTATE[42000] [1203] User afrissim_herve already has more than 'max_user_connections' active connections at line 127 in file classes/db/DbPDO.php
*ERROR* 	v1.7.6.0	2019/09/12 - 14:27:38: Link to database cannot be established: SQLSTATE[42000] [1203] User afrissim_herve already has more than 'max_user_connections' active connections at line 127 in file classes/db/DbPDO.php
*ERROR* 	v1.7.6.0	2019/09/12 - 14:27:38: Link to database cannot be established: SQLSTATE[42000] [1203] User afrissim_herve already has more than 'max_user_connections' active connections at line 127 in file classes/db/DbPDO.php
*ERROR* 	v1.7.6.0	2019/09/12 - 14:27:38: Link to database cannot be established: SQLSTATE[42000] [1203] User afrissim_herve already has more than 'max_user_connections' active connections at line 127 in file classes/db/DbPDO.php
*ERROR* 	v1.7.6.0	2019/09/12 - 14:27:38: Link to database cannot be established: SQLSTATE[42000] [1203] User afrissim_herve already has more than 'max_user_connections' active connections at line 127 in file classes/db/DbPDO.php
*ERROR* 	v1.7.6.0	2019/09/12 - 14:27:38: Link to database cannot be established: SQLSTATE[42000] [1203] User afrissim_herve already has more than 'max_user_connections' active connections at line 127 in file classes/db/DbPDO.php
*ERROR* 	v1.7.6.0	2019/09/12 - 14:27:38: Link to database cannot be established: SQLSTATE[42000] [1203] User afrissim_herve already has more than 'max_user_connections' active connections at line 127 in file classes/db/DbPDO.php
*ERROR* 	v1.7.6.0	2019/09/12 - 14:27:38: Link to database cannot be established: SQLSTATE[42000] [1203] User afrissim_herve already has more than 'max_user_connections' active connections at line 127 in file classes/db/DbPDO.php
*ERROR* 	v1.7.6.0	2019/09/12 - 14:27:38: Link to database cannot be established: SQLSTATE[42000] [1203] User afrissim_herve already has more than 'max_user_connections' active connections at line 127 in file classes/db/DbPDO.php
*ERROR* 	v1.7.6.0	2019/09/12 - 14:27:39: Link to database cannot be established: SQLSTATE[42000] [1203] User afrissim_herve already has more than 'max_user_connections' active connections at line 127 in file classes/db/DbPDO.php
*ERROR* 	v1.7.6.0	2019/09/12 - 14:27:39: Link to database cannot be established: SQLSTATE[42000] [1203] User afrissim_herve already has more than 'max_user_connections' active connections at line 127 in file classes/db/DbPDO.php
*ERROR* 	v1.7.6.0	2019/09/12 - 14:27:39: Link to database cannot be established: SQLSTATE[42000] [1203] User afrissim_herve already has more than 'max_user_connections' active connections at line 127 in file classes/db/DbPDO.php
*ERROR* 	v1.7.6.0	2019/09/12 - 14:29:48: Link to database cannot be established: SQLSTATE[42000] [1203] User afrissim_herve already has more than 'max_user_connections' active connections at line 127 in file classes/db/DbPDO.php
*ERROR* 	v1.7.6.0	2019/09/12 - 14:29:48: Link to database cannot be established: SQLSTATE[42000] [1203] User afrissim_herve already has more than 'max_user_connections' active connections at line 127 in file classes/db/DbPDO.php
*ERROR* 	v1.7.6.0	2019/09/12 - 14:29:48: Link to database cannot be established: SQLSTATE[42000] [1203] User afrissim_herve already has more than 'max_user_connections' active connections at line 127 in file classes/db/DbPDO.php
*ERROR* 	v1.7.6.0	2019/09/12 - 14:29:54: Link to database cannot be established: SQLSTATE[42000] [1203] User afrissim_herve already has more than 'max_user_connections' active connections at line 127 in file classes/db/DbPDO.php
*ERROR* 	v1.7.6.0	2019/09/12 - 14:29:54: Link to database cannot be established: SQLSTATE[42000] [1203] User afrissim_herve already has more than 'max_user_connections' active connections at line 127 in file classes/db/DbPDO.php
*ERROR* 	v1.7.6.0	2019/09/12 - 14:31:42: Link to database cannot be established: SQLSTATE[42000] [1203] User afrissim_herve already has more than 'max_user_connections' active connections at line 127 in file classes/db/DbPDO.php
*ERROR* 	v1.7.6.0	2019/09/12 - 14:39:39: Link to database cannot be established: SQLSTATE[42000] [1203] User afrissim_herve already has more than 'max_user_connections' active connections at line 127 in file classes/db/DbPDO.php
*ERROR* 	v1.7.6.0	2019/09/12 - 14:39:50: Link to database cannot be established: SQLSTATE[42000] [1203] User afrissim_herve already has more than 'max_user_connections' active connections at line 127 in file classes/db/DbPDO.php
*ERROR* 	v1.7.6.0	2019/09/12 - 14:40:02: Link to database cannot be established: SQLSTATE[42000] [1203] User afrissim_herve already has more than 'max_user_connections' active connections at line 127 in file classes/db/DbPDO.php
*ERROR* 	v1.7.6.0	2019/09/12 - 14:40:06: Link to database cannot be established: SQLSTATE[42000] [1203] User afrissim_herve already has more than 'max_user_connections' active connections at line 127 in file classes/db/DbPDO.php
*ERROR* 	v1.7.6.0	2019/09/12 - 14:43:02: Link to database cannot be established: SQLSTATE[42000] [1203] User afrissim_herve already has more than 'max_user_connections' active connections at line 127 in file classes/db/DbPDO.php
*ERROR* 	v1.7.6.0	2019/09/12 - 14:45:04: Link to database cannot be established: SQLSTATE[42000] [1203] User afrissim_herve already has more than 'max_user_connections' active connections at line 127 in file classes/db/DbPDO.php
*ERROR* 	v1.7.6.0	2019/09/12 - 14:45:04: Link to database cannot be established: SQLSTATE[42000] [1203] User afrissim_herve already has more than 'max_user_connections' active connections at line 127 in file classes/db/DbPDO.php
*ERROR* 	v1.7.6.0	2019/09/12 - 14:45:04: Link to database cannot be established: SQLSTATE[42000] [1203] User afrissim_herve already has more than 'max_user_connections' active connections at line 127 in file classes/db/DbPDO.php
*ERROR* 	v1.7.6.0	2019/09/12 - 14:45:04: Link to database cannot be established: SQLSTATE[42000] [1203] User afrissim_herve already has more than 'max_user_connections' active connections at line 127 in file classes/db/DbPDO.php
*ERROR* 	v1.7.6.0	2019/09/12 - 14:45:04: Link to database cannot be established: SQLSTATE[42000] [1203] User afrissim_herve already has more than 'max_user_connections' active connections at line 127 in file classes/db/DbPDO.php
*ERROR* 	v1.7.6.0	2019/09/12 - 14:45:04: Link to database cannot be established: SQLSTATE[42000] [1203] User afrissim_herve already has more than 'max_user_connections' active connections at line 127 in file classes/db/DbPDO.php
*ERROR* 	v1.7.6.0	2019/09/12 - 14:45:04: Link to database cannot be established: SQLSTATE[42000] [1203] User afrissim_herve already has more than 'max_user_connections' active connections at line 127 in file classes/db/DbPDO.php
*ERROR* 	v1.7.6.0	2019/09/12 - 14:45:04: Link to database cannot be established: SQLSTATE[42000] [1203] User afrissim_herve already has more than 'max_user_connections' active connections at line 127 in file classes/db/DbPDO.php
*ERROR* 	v1.7.6.0	2019/09/12 - 14:45:04: Link to database cannot be established: SQLSTATE[42000] [1203] User afrissim_herve already has more than 'max_user_connections' active connections at line 127 in file classes/db/DbPDO.php
*ERROR* 	v1.7.6.0	2019/09/12 - 14:45:04: Link to database cannot be established: SQLSTATE[42000] [1203] User afrissim_herve already has more than 'max_user_connections' active connections at line 127 in file classes/db/DbPDO.php
*ERROR* 	v1.7.6.0	2019/09/12 - 14:45:05: Link to database cannot be established: SQLSTATE[42000] [1203] User afrissim_herve already has more than 'max_user_connections' active connections at line 127 in file classes/db/DbPDO.php
*ERROR* 	v1.7.6.0	2019/09/12 - 14:45:05: Link to database cannot be established: SQLSTATE[42000] [1203] User afrissim_herve already has more than 'max_user_connections' active connections at line 127 in file classes/db/DbPDO.php
*ERROR* 	v1.7.6.0	2019/09/12 - 14:45:05: Link to database cannot be established: SQLSTATE[42000] [1203] User afrissim_herve already has more than 'max_user_connections' active connections at line 127 in file classes/db/DbPDO.php
*ERROR* 	v1.7.6.0	2019/09/12 - 14:45:05: Link to database cannot be established: SQLSTATE[42000] [1203] User afrissim_herve already has more than 'max_user_connections' active connections at line 127 in file classes/db/DbPDO.php
*ERROR* 	v1.7.6.0	2019/09/12 - 14:45:05: Link to database cannot be established: SQLSTATE[42000] [1203] User afrissim_herve already has more than 'max_user_connections' active connections at line 127 in file classes/db/DbPDO.php
*ERROR* 	v1.7.6.0	2019/09/12 - 14:45:08: Link to database cannot be established: SQLSTATE[42000] [1203] User afrissim_herve already has more than 'max_user_connections' active connections at line 127 in file classes/db/DbPDO.php
*ERROR* 	v1.7.6.0	2019/09/12 - 14:45:08: Link to database cannot be established: SQLSTATE[42000] [1203] User afrissim_herve already has more than 'max_user_connections' active connections at line 127 in file classes/db/DbPDO.php
*ERROR* 	v1.7.6.0	2019/09/12 - 14:45:08: Link to database cannot be established: SQLSTATE[42000] [1203] User afrissim_herve already has more than 'max_user_connections' active connections at line 127 in file classes/db/DbPDO.php
*ERROR* 	v1.7.6.0	2019/09/12 - 14:45:08: Link to database cannot be established: SQLSTATE[42000] [1203] User afrissim_herve already has more than 'max_user_connections' active connections at line 127 in file classes/db/DbPDO.php
*ERROR* 	v1.7.6.0	2019/09/12 - 14:45:08: Link to database cannot be established: SQLSTATE[42000] [1203] User afrissim_herve already has more than 'max_user_connections' active connections at line 127 in file classes/db/DbPDO.php
*ERROR* 	v1.7.6.0	2019/09/12 - 14:45:08: Link to database cannot be established: SQLSTATE[42000] [1203] User afrissim_herve already has more than 'max_user_connections' active connections at line 127 in file classes/db/DbPDO.php
*ERROR* 	v1.7.6.0	2019/09/12 - 14:45:08: Link to database cannot be established: SQLSTATE[42000] [1203] User afrissim_herve already has more than 'max_user_connections' active connections at line 127 in file classes/db/DbPDO.php
*ERROR* 	v1.7.6.0	2019/09/12 - 14:45:08: Link to database cannot be established: SQLSTATE[42000] [1203] User afrissim_herve already has more than 'max_user_connections' active connections at line 127 in file classes/db/DbPDO.php
*ERROR* 	v1.7.6.0	2019/09/12 - 14:45:09: Link to database cannot be established: SQLSTATE[42000] [1203] User afrissim_herve already has more than 'max_user_connections' active connections at line 127 in file classes/db/DbPDO.php
*ERROR* 	v1.7.6.0	2019/09/12 - 14:45:09: Link to database cannot be established: SQLSTATE[42000] [1203] User afrissim_herve already has more than 'max_user_connections' active connections at line 127 in file classes/db/DbPDO.php
*ERROR* 	v1.7.6.0	2019/09/12 - 14:45:09: Link to database cannot be established: SQLSTATE[42000] [1203] User afrissim_herve already has more than 'max_user_connections' active connections at line 127 in file classes/db/DbPDO.php
*ERROR* 	v1.7.6.0	2019/09/12 - 14:45:09: Link to database cannot be established: SQLSTATE[42000] [1203] User afrissim_herve already has more than 'max_user_connections' active connections at line 127 in file classes/db/DbPDO.php
*ERROR* 	v1.7.6.0	2019/09/12 - 14:45:09: Link to database cannot be established: SQLSTATE[42000] [1203] User afrissim_herve already has more than 'max_user_connections' active connections at line 127 in file classes/db/DbPDO.php
*ERROR* 	v1.7.6.0	2019/09/12 - 14:45:09: Link to database cannot be established: SQLSTATE[42000] [1203] User afrissim_herve already has more than 'max_user_connections' active connections at line 127 in file classes/db/DbPDO.php
*ERROR* 	v1.7.6.0	2019/09/12 - 14:45:09: Link to database cannot be established: SQLSTATE[42000] [1203] User afrissim_herve already has more than 'max_user_connections' active connections at line 127 in file classes/db/DbPDO.php
*ERROR* 	v1.7.6.0	2019/09/12 - 14:45:09: Link to database cannot be established: SQLSTATE[42000] [1203] User afrissim_herve already has more than 'max_user_connections' active connections at line 127 in file classes/db/DbPDO.php
*ERROR* 	v1.7.6.0	2019/09/12 - 14:45:09: Link to database cannot be established: SQLSTATE[42000] [1203] User afrissim_herve already has more than 'max_user_connections' active connections at line 127 in file classes/db/DbPDO.php
*ERROR* 	v1.7.6.0	2019/09/12 - 14:45:09: Link to database cannot be established: SQLSTATE[42000] [1203] User afrissim_herve already has more than 'max_user_connections' active connections at line 127 in file classes/db/DbPDO.php
*ERROR* 	v1.7.6.0	2019/09/12 - 14:45:09: Link to database cannot be established: SQLSTATE[42000] [1203] User afrissim_herve already has more than 'max_user_connections' active connections at line 127 in file classes/db/DbPDO.php
*ERROR* 	v1.7.6.0	2019/09/12 - 14:45:09: Link to database cannot be established: SQLSTATE[42000] [1203] User afrissim_herve already has more than 'max_user_connections' active connections at line 127 in file classes/db/DbPDO.php
*ERROR* 	v1.7.6.0	2019/09/12 - 14:45:13: Link to database cannot be established: SQLSTATE[42000] [1203] User afrissim_herve already has more than 'max_user_connections' active connections at line 127 in file classes/db/DbPDO.php
*ERROR* 	v1.7.6.0	2019/09/12 - 14:45:13: Link to database cannot be established: SQLSTATE[42000] [1203] User afrissim_herve already has more than 'max_user_connections' active connections at line 127 in file classes/db/DbPDO.php
*ERROR* 	v1.7.6.0	2019/09/12 - 14:45:13: Link to database cannot be established: SQLSTATE[42000] [1203] User afrissim_herve already has more than 'max_user_connections' active connections at line 127 in file classes/db/DbPDO.php
*ERROR* 	v1.7.6.0	2019/09/12 - 14:45:13: Link to database cannot be established: SQLSTATE[42000] [1203] User afrissim_herve already has more than 'max_user_connections' active connections at line 127 in file classes/db/DbPDO.php
*ERROR* 	v1.7.6.0	2019/09/12 - 14:45:13: Link to database cannot be established: SQLSTATE[42000] [1203] User afrissim_herve already has more than 'max_user_connections' active connections at line 127 in file classes/db/DbPDO.php
*ERROR* 	v1.7.6.0	2019/09/12 - 14:45:13: Link to database cannot be established: SQLSTATE[42000] [1203] User afrissim_herve already has more than 'max_user_connections' active connections at line 127 in file classes/db/DbPDO.php
*ERROR* 	v1.7.6.0	2019/09/12 - 14:45:13: Link to database cannot be established: SQLSTATE[42000] [1203] User afrissim_herve already has more than 'max_user_connections' active connections at line 127 in file classes/db/DbPDO.php
*ERROR* 	v1.7.6.0	2019/09/12 - 14:45:14: Link to database cannot be established: SQLSTATE[42000] [1203] User afrissim_herve already has more than 'max_user_connections' active connections at line 127 in file classes/db/DbPDO.php
*ERROR* 	v1.7.6.0	2019/09/12 - 14:45:14: Link to database cannot be established: SQLSTATE[42000] [1203] User afrissim_herve already has more than 'max_user_connections' active connections at line 127 in file classes/db/DbPDO.php
*ERROR* 	v1.7.6.0	2019/09/12 - 14:45:14: Link to database cannot be established: SQLSTATE[42000] [1203] User afrissim_herve already has more than 'max_user_connections' active connections at line 127 in file classes/db/DbPDO.php
*ERROR* 	v1.7.6.0	2019/09/12 - 14:45:14: Link to database cannot be established: SQLSTATE[42000] [1203] User afrissim_herve already has more than 'max_user_connections' active connections at line 127 in file classes/db/DbPDO.php
*ERROR* 	v1.7.6.0	2019/09/12 - 14:45:14: Link to database cannot be established: SQLSTATE[42000] [1203] User afrissim_herve already has more than 'max_user_connections' active connections at line 127 in file classes/db/DbPDO.php
*ERROR* 	v1.7.6.0	2019/09/12 - 14:45:14: Link to database cannot be established: SQLSTATE[42000] [1203] User afrissim_herve already has more than 'max_user_connections' active connections at line 127 in file classes/db/DbPDO.php
*ERROR* 	v1.7.6.0	2019/09/12 - 14:45:14: Link to database cannot be established: SQLSTATE[42000] [1203] User afrissim_herve already has more than 'max_user_connections' active connections at line 127 in file classes/db/DbPDO.php
*ERROR* 	v1.7.6.0	2019/09/12 - 14:45:14: Link to database cannot be established: SQLSTATE[42000] [1203] User afrissim_herve already has more than 'max_user_connections' active connections at line 127 in file classes/db/DbPDO.php
*ERROR* 	v1.7.6.0	2019/09/12 - 14:45:14: Link to database cannot be established: SQLSTATE[42000] [1203] User afrissim_herve already has more than 'max_user_connections' active connections at line 127 in file classes/db/DbPDO.php
*ERROR* 	v1.7.6.0	2019/09/12 - 14:49:29: File Type is not allowed. at line 1174 in file classes/Tools.php
*ERROR* 	v1.7.6.0	2019/09/12 - 14:51:15: Link to database cannot be established: SQLSTATE[42000] [1203] User afrissim_herve already has more than 'max_user_connections' active connections at line 127 in file classes/db/DbPDO.php
*ERROR* 	v1.7.6.0	2019/09/12 - 14:51:16: Link to database cannot be established: SQLSTATE[42000] [1203] User afrissim_herve already has more than 'max_user_connections' active connections at line 127 in file classes/db/DbPDO.php
*ERROR* 	v1.7.6.0	2019/09/12 - 14:51:16: Link to database cannot be established: SQLSTATE[42000] [1203] User afrissim_herve already has more than 'max_user_connections' active connections at line 127 in file classes/db/DbPDO.php
*ERROR* 	v1.7.6.0	2019/09/12 - 14:51:16: Link to database cannot be established: SQLSTATE[42000] [1203] User afrissim_herve already has more than 'max_user_connections' active connections at line 127 in file classes/db/DbPDO.php
*ERROR* 	v1.7.6.0	2019/09/12 - 14:51:16: Link to database cannot be established: SQLSTATE[42000] [1203] User afrissim_herve already has more than 'max_user_connections' active connections at line 127 in file classes/db/DbPDO.php
*ERROR* 	v1.7.6.0	2019/09/12 - 14:51:16: Link to database cannot be established: SQLSTATE[42000] [1203] User afrissim_herve already has more than 'max_user_connections' active connections at line 127 in file classes/db/DbPDO.php
*ERROR* 	v1.7.6.0	2019/09/12 - 14:51:16: Link to database cannot be established: SQLSTATE[42000] [1203] User afrissim_herve already has more than 'max_user_connections' active connections at line 127 in file classes/db/DbPDO.php
*ERROR* 	v1.7.6.0	2019/09/12 - 14:51:16: Link to database cannot be established: SQLSTATE[42000] [1203] User afrissim_herve already has more than 'max_user_connections' active connections at line 127 in file classes/db/DbPDO.php
*ERROR* 	v1.7.6.0	2019/09/12 - 14:51:16: Link to database cannot be established: SQLSTATE[42000] [1203] User afrissim_herve already has more than 'max_user_connections' active connections at line 127 in file classes/db/DbPDO.php
*ERROR* 	v1.7.6.0	2019/09/12 - 14:51:16: Link to database cannot be established: SQLSTATE[42000] [1203] User afrissim_herve already has more than 'max_user_connections' active connections at line 127 in file classes/db/DbPDO.php
*ERROR* 	v1.7.6.0	2019/09/12 - 14:51:16: Link to database cannot be established: SQLSTATE[42000] [1203] User afrissim_herve already has more than 'max_user_connections' active connections at line 127 in file classes/db/DbPDO.php
*ERROR* 	v1.7.6.0	2019/09/12 - 14:51:16: Link to database cannot be established: SQLSTATE[42000] [1203] User afrissim_herve already has more than 'max_user_connections' active connections at line 127 in file classes/db/DbPDO.php
*ERROR* 	v1.7.6.0	2019/09/12 - 14:51:16: Link to database cannot be established: SQLSTATE[42000] [1203] User afrissim_herve already has more than 'max_user_connections' active connections at line 127 in file classes/db/DbPDO.php
*ERROR* 	v1.7.6.0	2019/09/12 - 14:51:16: Link to database cannot be established: SQLSTATE[42000] [1203] User afrissim_herve already has more than 'max_user_connections' active connections at line 127 in file classes/db/DbPDO.php
*ERROR* 	v1.7.6.0	2019/09/12 - 14:51:16: Link to database cannot be established: SQLSTATE[42000] [1203] User afrissim_herve already has more than 'max_user_connections' active connections at line 127 in file classes/db/DbPDO.php
*ERROR* 	v1.7.6.0	2019/09/12 - 14:51:16: Link to database cannot be established: SQLSTATE[42000] [1203] User afrissim_herve already has more than 'max_user_connections' active connections at line 127 in file classes/db/DbPDO.php
*ERROR* 	v1.7.6.0	2019/09/12 - 14:51:16: Link to database cannot be established: SQLSTATE[42000] [1203] User afrissim_herve already has more than 'max_user_connections' active connections at line 127 in file classes/db/DbPDO.php
*ERROR* 	v1.7.6.0	2019/09/12 - 14:51:17: Link to database cannot be established: SQLSTATE[42000] [1203] User afrissim_herve already has more than 'max_user_connections' active connections at line 127 in file classes/db/DbPDO.php
*ERROR* 	v1.7.6.0	2019/09/12 - 14:51:17: Link to database cannot be established: SQLSTATE[42000] [1203] User afrissim_herve already has more than 'max_user_connections' active connections at line 127 in file classes/db/DbPDO.php
*ERROR* 	v1.7.6.0	2019/09/12 - 14:51:17: Link to database cannot be established: SQLSTATE[42000] [1203] User afrissim_herve already has more than 'max_user_connections' active connections at line 127 in file classes/db/DbPDO.php
*ERROR* 	v1.7.6.0	2019/09/12 - 14:51:17: Link to database cannot be established: SQLSTATE[42000] [1203] User afrissim_herve already has more than 'max_user_connections' active connections at line 127 in file classes/db/DbPDO.php
*ERROR* 	v1.7.6.0	2019/09/12 - 14:51:17: Link to database cannot be established: SQLSTATE[42000] [1203] User afrissim_herve already has more than 'max_user_connections' active connections at line 127 in file classes/db/DbPDO.php
*ERROR* 	v1.7.6.0	2019/09/12 - 14:51:17: Link to database cannot be established: SQLSTATE[42000] [1203] User afrissim_herve already has more than 'max_user_connections' active connections at line 127 in file classes/db/DbPDO.php
*ERROR* 	v1.7.6.0	2019/09/12 - 14:51:17: Link to database cannot be established: SQLSTATE[42000] [1203] User afrissim_herve already has more than 'max_user_connections' active connections at line 127 in file classes/db/DbPDO.php
*ERROR* 	v1.7.6.0	2019/09/12 - 14:51:17: Link to database cannot be established: SQLSTATE[42000] [1203] User afrissim_herve already has more than 'max_user_connections' active connections at line 127 in file classes/db/DbPDO.php
*ERROR* 	v1.7.6.0	2019/09/12 - 14:51:17: Link to database cannot be established: SQLSTATE[42000] [1203] User afrissim_herve already has more than 'max_user_connections' active connections at line 127 in file classes/db/DbPDO.php
*ERROR* 	v1.7.6.0	2019/09/12 - 14:51:17: Link to database cannot be established: SQLSTATE[42000] [1203] User afrissim_herve already has more than 'max_user_connections' active connections at line 127 in file classes/db/DbPDO.php
*ERROR* 	v1.7.6.0	2019/09/12 - 14:51:17: Link to database cannot be established: SQLSTATE[42000] [1203] User afrissim_herve already has more than 'max_user_connections' active connections at line 127 in file classes/db/DbPDO.php
*ERROR* 	v1.7.6.0	2019/09/12 - 14:51:35: Link to database cannot be established: SQLSTATE[42000] [1203] User afrissim_herve already has more than 'max_user_connections' active connections at line 127 in file classes/db/DbPDO.php
*ERROR* 	v1.7.6.0	2019/09/12 - 14:51:35: Link to database cannot be established: SQLSTATE[42000] [1203] User afrissim_herve already has more than 'max_user_connections' active connections at line 127 in file classes/db/DbPDO.php
*ERROR* 	v1.7.6.0	2019/09/12 - 14:51:35: Link to database cannot be established: SQLSTATE[42000] [1203] User afrissim_herve already has more than 'max_user_connections' active connections at line 127 in file classes/db/DbPDO.php
*ERROR* 	v1.7.6.0	2019/09/12 - 14:51:35: Link to database cannot be established: SQLSTATE[42000] [1203] User afrissim_herve already has more than 'max_user_connections' active connections at line 127 in file classes/db/DbPDO.php
*ERROR* 	v1.7.6.0	2019/09/12 - 14:51:35: Link to database cannot be established: SQLSTATE[42000] [1203] User afrissim_herve already has more than 'max_user_connections' active connections at line 127 in file classes/db/DbPDO.php
*ERROR* 	v1.7.6.0	2019/09/12 - 14:51:35: Link to database cannot be established: SQLSTATE[42000] [1203] User afrissim_herve already has more than 'max_user_connections' active connections at line 127 in file classes/db/DbPDO.php
*ERROR* 	v1.7.6.0	2019/09/12 - 14:51:35: Link to database cannot be established: SQLSTATE[42000] [1203] User afrissim_herve already has more than 'max_user_connections' active connections at line 127 in file classes/db/DbPDO.php
*ERROR* 	v1.7.6.0	2019/09/12 - 14:51:35: Link to database cannot be established: SQLSTATE[42000] [1203] User afrissim_herve already has more than 'max_user_connections' active connections at line 127 in file classes/db/DbPDO.php
*ERROR* 	v1.7.6.0	2019/09/12 - 14:51:35: Link to database cannot be established: SQLSTATE[42000] [1203] User afrissim_herve already has more than 'max_user_connections' active connections at line 127 in file classes/db/DbPDO.php
*ERROR* 	v1.7.6.0	2019/09/12 - 14:51:35: Link to database cannot be established: SQLSTATE[42000] [1203] User afrissim_herve already has more than 'max_user_connections' active connections at line 127 in file classes/db/DbPDO.php
*ERROR* 	v1.7.6.0	2019/09/12 - 14:51:36: Link to database cannot be established: SQLSTATE[42000] [1203] User afrissim_herve already has more than 'max_user_connections' active connections at line 127 in file classes/db/DbPDO.php
*ERROR* 	v1.7.6.0	2019/09/12 - 14:51:36: Link to database cannot be established: SQLSTATE[42000] [1203] User afrissim_herve already has more than 'max_user_connections' active connections at line 127 in file classes/db/DbPDO.php
*ERROR* 	v1.7.6.0	2019/09/12 - 14:51:36: Link to database cannot be established: SQLSTATE[42000] [1203] User afrissim_herve already has more than 'max_user_connections' active connections at line 127 in file classes/db/DbPDO.php
*ERROR* 	v1.7.6.0	2019/09/12 - 14:51:36: Link to database cannot be established: SQLSTATE[42000] [1203] User afrissim_herve already has more than 'max_user_connections' active connections at line 127 in file classes/db/DbPDO.php
*ERROR* 	v1.7.6.0	2019/09/12 - 14:51:36: Link to database cannot be established: SQLSTATE[42000] [1203] User afrissim_herve already has more than 'max_user_connections' active connections at line 127 in file classes/db/DbPDO.php
*ERROR* 	v1.7.6.0	2019/09/12 - 14:58:10: Link to database cannot be established: SQLSTATE[42000] [1203] User afrissim_herve already has more than 'max_user_connections' active connections at line 127 in file classes/db/DbPDO.php
*ERROR* 	v1.7.6.0	2019/09/12 - 14:58:10: Link to database cannot be established: SQLSTATE[42000] [1203] User afrissim_herve already has more than 'max_user_connections' active connections at line 127 in file classes/db/DbPDO.php
*ERROR* 	v1.7.6.0	2019/09/12 - 14:58:10: Link to database cannot be established: SQLSTATE[42000] [1203] User afrissim_herve already has more than 'max_user_connections' active connections at line 127 in file classes/db/DbPDO.php
*ERROR* 	v1.7.6.0	2019/09/12 - 14:58:10: Link to database cannot be established: SQLSTATE[42000] [1203] User afrissim_herve already has more than 'max_user_connections' active connections at line 127 in file classes/db/DbPDO.php
*ERROR* 	v1.7.6.0	2019/09/12 - 14:58:10: Link to database cannot be established: SQLSTATE[42000] [1203] User afrissim_herve already has more than 'max_user_connections' active connections at line 127 in file classes/db/DbPDO.php
*ERROR* 	v1.7.6.0	2019/09/12 - 14:58:10: Link to database cannot be established: SQLSTATE[42000] [1203] User afrissim_herve already has more than 'max_user_connections' active connections at line 127 in file classes/db/DbPDO.php
*ERROR* 	v1.7.6.0	2019/09/12 - 14:58:10: Link to database cannot be established: SQLSTATE[42000] [1203] User afrissim_herve already has more than 'max_user_connections' active connections at line 127 in file classes/db/DbPDO.php
*ERROR* 	v1.7.6.0	2019/09/12 - 14:58:10: Link to database cannot be established: SQLSTATE[42000] [1203] User afrissim_herve already has more than 'max_user_connections' active connections at line 127 in file classes/db/DbPDO.php
*ERROR* 	v1.7.6.0	2019/09/12 - 14:58:10: Link to database cannot be established: SQLSTATE[42000] [1203] User afrissim_herve already has more than 'max_user_connections' active connections at line 127 in file classes/db/DbPDO.php
*ERROR* 	v1.7.6.0	2019/09/12 - 14:58:10: Link to database cannot be established: SQLSTATE[42000] [1203] User afrissim_herve already has more than 'max_user_connections' active connections at line 127 in file classes/db/DbPDO.php
*ERROR* 	v1.7.6.0	2019/09/12 - 14:58:10: Link to database cannot be established: SQLSTATE[42000] [1203] User afrissim_herve already has more than 'max_user_connections' active connections at line 127 in file classes/db/DbPDO.php
*ERROR* 	v1.7.6.0	2019/09/12 - 14:58:10: Link to database cannot be established: SQLSTATE[42000] [1203] User afrissim_herve already has more than 'max_user_connections' active connections at line 127 in file classes/db/DbPDO.php
*ERROR* 	v1.7.6.0	2019/09/12 - 14:58:10: Link to database cannot be established: SQLSTATE[42000] [1203] User afrissim_herve already has more than 'max_user_connections' active connections at line 127 in file classes/db/DbPDO.php
*ERROR* 	v1.7.6.0	2019/09/12 - 14:58:10: Link to database cannot be established: SQLSTATE[42000] [1203] User afrissim_herve already has more than 'max_user_connections' active connections at line 127 in file classes/db/DbPDO.php
*ERROR* 	v1.7.6.0	2019/09/12 - 14:58:11: Link to database cannot be established: SQLSTATE[42000] [1203] User afrissim_herve already has more than 'max_user_connections' active connections at line 127 in file classes/db/DbPDO.php
*ERROR* 	v1.7.6.0	2019/09/12 - 14:58:11: Link to database cannot be established: SQLSTATE[42000] [1203] User afrissim_herve already has more than 'max_user_connections' active connections at line 127 in file classes/db/DbPDO.php
*ERROR* 	v1.7.6.0	2019/09/12 - 14:58:26: Link to database cannot be established: SQLSTATE[42000] [1203] User afrissim_herve already has more than 'max_user_connections' active connections at line 127 in file classes/db/DbPDO.php
*ERROR* 	v1.7.6.0	2019/09/12 - 14:58:26: Link to database cannot be established: SQLSTATE[42000] [1203] User afrissim_herve already has more than 'max_user_connections' active connections at line 127 in file classes/db/DbPDO.php
*ERROR* 	v1.7.6.0	2019/09/12 - 14:58:26: Link to database cannot be established: SQLSTATE[42000] [1203] User afrissim_herve already has more than 'max_user_connections' active connections at line 127 in file classes/db/DbPDO.php
*ERROR* 	v1.7.6.0	2019/09/12 - 14:58:26: Link to database cannot be established: SQLSTATE[42000] [1203] User afrissim_herve already has more than 'max_user_connections' active connections at line 127 in file classes/db/DbPDO.php
*ERROR* 	v1.7.6.0	2019/09/12 - 14:58:26: Link to database cannot be established: SQLSTATE[42000] [1203] User afrissim_herve already has more than 'max_user_connections' active connections at line 127 in file classes/db/DbPDO.php
*ERROR* 	v1.7.6.0	2019/09/12 - 14:58:26: Link to database cannot be established: SQLSTATE[42000] [1203] User afrissim_herve already has more than 'max_user_connections' active connections at line 127 in file classes/db/DbPDO.php
*ERROR* 	v1.7.6.0	2019/09/12 - 14:58:26: Link to database cannot be established: SQLSTATE[42000] [1203] User afrissim_herve already has more than 'max_user_connections' active connections at line 127 in file classes/db/DbPDO.php
*ERROR* 	v1.7.6.0	2019/09/12 - 14:58:26: Link to database cannot be established: SQLSTATE[42000] [1203] User afrissim_herve already has more than 'max_user_connections' active connections at line 127 in file classes/db/DbPDO.php
*ERROR* 	v1.7.6.0	2019/09/12 - 14:58:26: Link to database cannot be established: SQLSTATE[42000] [1203] User afrissim_herve already has more than 'max_user_connections' active connections at line 127 in file classes/db/DbPDO.php
*ERROR* 	v1.7.6.0	2019/09/12 - 14:58:26: Link to database cannot be established: SQLSTATE[42000] [1203] User afrissim_herve already has more than 'max_user_connections' active connections at line 127 in file classes/db/DbPDO.php
*ERROR* 	v1.7.6.0	2019/09/12 - 14:58:26: Link to database cannot be established: SQLSTATE[42000] [1203] User afrissim_herve already has more than 'max_user_connections' active connections at line 127 in file classes/db/DbPDO.php
*ERROR* 	v1.7.6.0	2019/09/12 - 14:58:26: Link to database cannot be established: SQLSTATE[42000] [1203] User afrissim_herve already has more than 'max_user_connections' active connections at line 127 in file classes/db/DbPDO.php
*ERROR* 	v1.7.6.0	2019/09/12 - 14:58:26: Link to database cannot be established: SQLSTATE[42000] [1203] User afrissim_herve already has more than 'max_user_connections' active connections at line 127 in file classes/db/DbPDO.php
*ERROR* 	v1.7.6.0	2019/09/12 - 14:58:26: Link to database cannot be established: SQLSTATE[42000] [1203] User afrissim_herve already has more than 'max_user_connections' active connections at line 127 in file classes/db/DbPDO.php
*ERROR* 	v1.7.6.0	2019/09/12 - 14:58:26: Link to database cannot be established: SQLSTATE[42000] [1203] User afrissim_herve already has more than 'max_user_connections' active connections at line 127 in file classes/db/DbPDO.php
*ERROR* 	v1.7.6.0	2019/09/12 - 14:58:26: Link to database cannot be established: SQLSTATE[42000] [1203] User afrissim_herve already has more than 'max_user_connections' active connections at line 127 in file classes/db/DbPDO.php
*ERROR* 	v1.7.6.0	2019/09/12 - 14:58:27: Link to database cannot be established: SQLSTATE[42000] [1203] User afrissim_herve already has more than 'max_user_connections' active connections at line 127 in file classes/db/DbPDO.php
*ERROR* 	v1.7.6.0	2019/09/12 - 14:58:35: Link to database cannot be established: SQLSTATE[42000] [1203] User afrissim_herve already has more than 'max_user_connections' active connections at line 127 in file classes/db/DbPDO.php
*ERROR* 	v1.7.6.0	2019/09/12 - 14:58:35: Link to database cannot be established: SQLSTATE[42000] [1203] User afrissim_herve already has more than 'max_user_connections' active connections at line 127 in file classes/db/DbPDO.php
*ERROR* 	v1.7.6.0	2019/09/12 - 14:58:35: Link to database cannot be established: SQLSTATE[42000] [1203] User afrissim_herve already has more than 'max_user_connections' active connections at line 127 in file classes/db/DbPDO.php
*ERROR* 	v1.7.6.0	2019/09/12 - 14:58:35: Link to database cannot be established: SQLSTATE[42000] [1203] User afrissim_herve already has more than 'max_user_connections' active connections at line 127 in file classes/db/DbPDO.php
*ERROR* 	v1.7.6.0	2019/09/12 - 14:58:35: Link to database cannot be established: SQLSTATE[42000] [1203] User afrissim_herve already has more than 'max_user_connections' active connections at line 127 in file classes/db/DbPDO.php
*ERROR* 	v1.7.6.0	2019/09/12 - 14:58:35: Link to database cannot be established: SQLSTATE[42000] [1203] User afrissim_herve already has more than 'max_user_connections' active connections at line 127 in file classes/db/DbPDO.php
*ERROR* 	v1.7.6.0	2019/09/12 - 14:58:35: Link to database cannot be established: SQLSTATE[42000] [1203] User afrissim_herve already has more than 'max_user_connections' active connections at line 127 in file classes/db/DbPDO.php
*ERROR* 	v1.7.6.0	2019/09/12 - 14:58:35: Link to database cannot be established: SQLSTATE[42000] [1203] User afrissim_herve already has more than 'max_user_connections' active connections at line 127 in file classes/db/DbPDO.php
*ERROR* 	v1.7.6.0	2019/09/12 - 14:58:35: Link to database cannot be established: SQLSTATE[42000] [1203] User afrissim_herve already has more than 'max_user_connections' active connections at line 127 in file classes/db/DbPDO.php
*ERROR* 	v1.7.6.0	2019/09/12 - 14:58:35: Link to database cannot be established: SQLSTATE[42000] [1203] User afrissim_herve already has more than 'max_user_connections' active connections at line 127 in file classes/db/DbPDO.php
*ERROR* 	v1.7.6.0	2019/09/12 - 14:58:35: Link to database cannot be established: SQLSTATE[42000] [1203] User afrissim_herve already has more than 'max_user_connections' active connections at line 127 in file classes/db/DbPDO.php
*ERROR* 	v1.7.6.0	2019/09/12 - 14:58:35: Link to database cannot be established: SQLSTATE[42000] [1203] User afrissim_herve already has more than 'max_user_connections' active connections at line 127 in file classes/db/DbPDO.php
*ERROR* 	v1.7.6.0	2019/09/12 - 15:00:26: Sorry, file already exists. at line 1174 in file classes/Tools.php
*ERROR* 	v1.7.6.0	2019/09/12 - 15:02:21: Link to database cannot be established: SQLSTATE[42000] [1203] User afrissim_herve already has more than 'max_user_connections' active connections at line 127 in file classes/db/DbPDO.php
*ERROR* 	v1.7.6.0	2019/09/12 - 15:02:21: Link to database cannot be established: SQLSTATE[42000] [1203] User afrissim_herve already has more than 'max_user_connections' active connections at line 127 in file classes/db/DbPDO.php
*ERROR* 	v1.7.6.0	2019/09/12 - 15:02:22: Link to database cannot be established: SQLSTATE[42000] [1203] User afrissim_herve already has more than 'max_user_connections' active connections at line 127 in file classes/db/DbPDO.php
*ERROR* 	v1.7.6.0	2019/09/12 - 15:02:22: Link to database cannot be established: SQLSTATE[42000] [1203] User afrissim_herve already has more than 'max_user_connections' active connections at line 127 in file classes/db/DbPDO.php
*ERROR* 	v1.7.6.0	2019/09/12 - 15:02:22: Link to database cannot be established: SQLSTATE[42000] [1203] User afrissim_herve already has more than 'max_user_connections' active connections at line 127 in file classes/db/DbPDO.php
*ERROR* 	v1.7.6.0	2019/09/12 - 15:02:22: Link to database cannot be established: SQLSTATE[42000] [1203] User afrissim_herve already has more than 'max_user_connections' active connections at line 127 in file classes/db/DbPDO.php
*ERROR* 	v1.7.6.0	2019/09/12 - 15:02:22: Link to database cannot be established: SQLSTATE[42000] [1203] User afrissim_herve already has more than 'max_user_connections' active connections at line 127 in file classes/db/DbPDO.php
*ERROR* 	v1.7.6.0	2019/09/12 - 15:02:22: Link to database cannot be established: SQLSTATE[42000] [1203] User afrissim_herve already has more than 'max_user_connections' active connections at line 127 in file classes/db/DbPDO.php
*ERROR* 	v1.7.6.0	2019/09/12 - 15:02:22: Link to database cannot be established: SQLSTATE[42000] [1203] User afrissim_herve already has more than 'max_user_connections' active connections at line 127 in file classes/db/DbPDO.php
*ERROR* 	v1.7.6.0	2019/09/12 - 15:02:22: Link to database cannot be established: SQLSTATE[42000] [1203] User afrissim_herve already has more than 'max_user_connections' active connections at line 127 in file classes/db/DbPDO.php
*ERROR* 	v1.7.6.0	2019/09/12 - 15:02:22: Link to database cannot be established: SQLSTATE[42000] [1203] User afrissim_herve already has more than 'max_user_connections' active connections at line 127 in file classes/db/DbPDO.php
*ERROR* 	v1.7.6.0	2019/09/12 - 15:02:22: Link to database cannot be established: SQLSTATE[42000] [1203] User afrissim_herve already has more than 'max_user_connections' active connections at line 127 in file classes/db/DbPDO.php
*ERROR* 	v1.7.6.0	2019/09/12 - 15:02:22: Link to database cannot be established: SQLSTATE[42000] [1203] User afrissim_herve already has more than 'max_user_connections' active connections at line 127 in file classes/db/DbPDO.php
*ERROR* 	v1.7.6.0	2019/09/12 - 15:02:22: Link to database cannot be established: SQLSTATE[42000] [1203] User afrissim_herve already has more than 'max_user_connections' active connections at line 127 in file classes/db/DbPDO.php
*ERROR* 	v1.7.6.0	2019/09/12 - 15:02:22: Link to database cannot be established: SQLSTATE[42000] [1203] User afrissim_herve already has more than 'max_user_connections' active connections at line 127 in file classes/db/DbPDO.php
*ERROR* 	v1.7.6.0	2019/09/12 - 15:02:22: Link to database cannot be established: SQLSTATE[42000] [1203] User afrissim_herve already has more than 'max_user_connections' active connections at line 127 in file classes/db/DbPDO.php
*ERROR* 	v1.7.6.0	2019/09/12 - 15:02:34: Link to database cannot be established: SQLSTATE[42000] [1203] User afrissim_herve already has more than 'max_user_connections' active connections at line 127 in file classes/db/DbPDO.php
*ERROR* 	v1.7.6.0	2019/09/12 - 15:02:34: Link to database cannot be established: SQLSTATE[42000] [1203] User afrissim_herve already has more than 'max_user_connections' active connections at line 127 in file classes/db/DbPDO.php
*ERROR* 	v1.7.6.0	2019/09/12 - 15:02:34: Link to database cannot be established: SQLSTATE[42000] [1203] User afrissim_herve already has more than 'max_user_connections' active connections at line 127 in file classes/db/DbPDO.php
*ERROR* 	v1.7.6.0	2019/09/12 - 15:02:34: Link to database cannot be established: SQLSTATE[42000] [1203] User afrissim_herve already has more than 'max_user_connections' active connections at line 127 in file classes/db/DbPDO.php
*ERROR* 	v1.7.6.0	2019/09/12 - 15:02:34: Link to database cannot be established: SQLSTATE[42000] [1203] User afrissim_herve already has more than 'max_user_connections' active connections at line 127 in file classes/db/DbPDO.php
*ERROR* 	v1.7.6.0	2019/09/12 - 15:02:34: Link to database cannot be established: SQLSTATE[42000] [1203] User afrissim_herve already has more than 'max_user_connections' active connections at line 127 in file classes/db/DbPDO.php
*ERROR* 	v1.7.6.0	2019/09/12 - 15:02:34: Link to database cannot be established: SQLSTATE[42000] [1203] User afrissim_herve already has more than 'max_user_connections' active connections at line 127 in file classes/db/DbPDO.php
*ERROR* 	v1.7.6.0	2019/09/12 - 15:02:34: Link to database cannot be established: SQLSTATE[42000] [1203] User afrissim_herve already has more than 'max_user_connections' active connections at line 127 in file classes/db/DbPDO.php
*ERROR* 	v1.7.6.0	2019/09/12 - 15:02:34: Link to database cannot be established: SQLSTATE[42000] [1203] User afrissim_herve already has more than 'max_user_connections' active connections at line 127 in file classes/db/DbPDO.php
*ERROR* 	v1.7.6.0	2019/09/12 - 15:02:34: Link to database cannot be established: SQLSTATE[42000] [1203] User afrissim_herve already has more than 'max_user_connections' active connections at line 127 in file classes/db/DbPDO.php
*ERROR* 	v1.7.6.0	2019/09/12 - 15:02:34: Link to database cannot be established: SQLSTATE[42000] [1203] User afrissim_herve already has more than 'max_user_connections' active connections at line 127 in file classes/db/DbPDO.php
*ERROR* 	v1.7.6.0	2019/09/12 - 15:02:34: Link to database cannot be established: SQLSTATE[42000] [1203] User afrissim_herve already has more than 'max_user_connections' active connections at line 127 in file classes/db/DbPDO.php
*ERROR* 	v1.7.6.0	2019/09/12 - 15:02:34: Link to database cannot be established: SQLSTATE[42000] [1203] User afrissim_herve already has more than 'max_user_connections' active connections at line 127 in file classes/db/DbPDO.php
*ERROR* 	v1.7.6.0	2019/09/12 - 15:02:35: Link to database cannot be established: SQLSTATE[42000] [1203] User afrissim_herve already has more than 'max_user_connections' active connections at line 127 in file classes/db/DbPDO.php
*ERROR* 	v1.7.6.0	2019/09/12 - 15:17:37: Link to database cannot be established: SQLSTATE[42000] [1203] User afrissim_herve already has more than 'max_user_connections' active connections at line 127 in file classes/db/DbPDO.php
*ERROR* 	v1.7.6.0	2019/09/12 - 15:17:49: Link to database cannot be established: SQLSTATE[42000] [1203] User afrissim_herve already has more than 'max_user_connections' active connections at line 127 in file classes/db/DbPDO.php
*ERROR* 	v1.7.6.0	2019/09/12 - 15:22:53: Link to database cannot be established: SQLSTATE[42000] [1203] User afrissim_herve already has more than 'max_user_connections' active connections at line 127 in file classes/db/DbPDO.php
*ERROR* 	v1.7.6.0	2019/09/12 - 15:47:05: Link to database cannot be established: SQLSTATE[42000] [1203] User afrissim_herve already has more than 'max_user_connections' active connections at line 127 in file classes/db/DbPDO.php
*ERROR* 	v1.7.6.0	2019/09/12 - 15:47:09: Link to database cannot be established: SQLSTATE[42000] [1203] User afrissim_herve already has more than 'max_user_connections' active connections at line 127 in file classes/db/DbPDO.php
*ERROR* 	v1.7.6.0	2019/09/12 - 15:47:11: Link to database cannot be established: SQLSTATE[42000] [1203] User afrissim_herve already has more than 'max_user_connections' active connections at line 127 in file classes/db/DbPDO.php
*ERROR* 	v1.7.6.0	2019/09/12 - 15:47:12: Link to database cannot be established: SQLSTATE[42000] [1203] User afrissim_herve already has more than 'max_user_connections' active connections at line 127 in file classes/db/DbPDO.php
*ERROR* 	v1.7.6.0	2019/09/12 - 16:03:54: Link to database cannot be established: SQLSTATE[42000] [1203] User afrissim_herve already has more than 'max_user_connections' active connections at line 127 in file classes/db/DbPDO.php
*ERROR* 	v1.7.6.0	2019/09/12 - 16:06:40: Link to database cannot be established: SQLSTATE[42000] [1203] User afrissim_herve already has more than 'max_user_connections' active connections at line 127 in file classes/db/DbPDO.php
*ERROR* 	v1.7.6.0	2019/09/12 - 16:13:50: Link to database cannot be established: SQLSTATE[42000] [1203] User afrissim_herve already has more than 'max_user_connections' active connections at line 127 in file classes/db/DbPDO.php
*ERROR* 	v1.7.6.0	2019/09/12 - 16:41:00: Link to database cannot be established: SQLSTATE[42000] [1203] User afrissim_herve already has more than 'max_user_connections' active connections at line 127 in file classes/db/DbPDO.php
*ERROR* 	v1.7.6.0	2019/09/12 - 17:23:26: Link to database cannot be established: SQLSTATE[42000] [1203] User afrissim_herve already has more than 'max_user_connections' active connections at line 127 in file classes/db/DbPDO.php
*ERROR* 	v1.7.6.0	2019/09/12 - 17:23:27: Link to database cannot be established: SQLSTATE[42000] [1203] User afrissim_herve already has more than 'max_user_connections' active connections at line 127 in file classes/db/DbPDO.php
*ERROR* 	v1.7.6.0	2019/09/12 - 17:23:27: Link to database cannot be established: SQLSTATE[42000] [1203] User afrissim_herve already has more than 'max_user_connections' active connections at line 127 in file classes/db/DbPDO.php
*ERROR* 	v1.7.6.0	2019/09/12 - 17:23:27: Link to database cannot be established: SQLSTATE[42000] [1203] User afrissim_herve already has more than 'max_user_connections' active connections at line 127 in file classes/db/DbPDO.php
*ERROR* 	v1.7.6.0	2019/09/12 - 17:23:28: Link to database cannot be established: SQLSTATE[42000] [1203] User afrissim_herve already has more than 'max_user_connections' active connections at line 127 in file classes/db/DbPDO.php
*ERROR* 	v1.7.6.0	2019/09/12 - 17:23:28: Link to database cannot be established: SQLSTATE[42000] [1203] User afrissim_herve already has more than 'max_user_connections' active connections at line 127 in file classes/db/DbPDO.php
*ERROR* 	v1.7.6.0	2019/09/12 - 17:23:28: Link to database cannot be established: SQLSTATE[42000] [1203] User afrissim_herve already has more than 'max_user_connections' active connections at line 127 in file classes/db/DbPDO.php
*ERROR* 	v1.7.6.0	2019/09/12 - 17:23:28: Link to database cannot be established: SQLSTATE[42000] [1203] User afrissim_herve already has more than 'max_user_connections' active connections at line 127 in file classes/db/DbPDO.php
*ERROR* 	v1.7.6.0	2019/09/12 - 17:23:28: Link to database cannot be established: SQLSTATE[42000] [1203] User afrissim_herve already has more than 'max_user_connections' active connections at line 127 in file classes/db/DbPDO.php
*ERROR* 	v1.7.6.0	2019/09/12 - 17:23:28: Link to database cannot be established: SQLSTATE[42000] [1203] User afrissim_herve already has more than 'max_user_connections' active connections at line 127 in file classes/db/DbPDO.php
*ERROR* 	v1.7.6.0	2019/09/12 - 17:23:28: Link to database cannot be established: SQLSTATE[42000] [1203] User afrissim_herve already has more than 'max_user_connections' active connections at line 127 in file classes/db/DbPDO.php
*ERROR* 	v1.7.6.0	2019/09/12 - 17:23:28: Link to database cannot be established: SQLSTATE[42000] [1203] User afrissim_herve already has more than 'max_user_connections' active connections at line 127 in file classes/db/DbPDO.php
*ERROR* 	v1.7.6.0	2019/09/12 - 17:23:28: Link to database cannot be established: SQLSTATE[42000] [1203] User afrissim_herve already has more than 'max_user_connections' active connections at line 127 in file classes/db/DbPDO.php
*ERROR* 	v1.7.6.0	2019/09/12 - 17:23:28: Link to database cannot be established: SQLSTATE[42000] [1203] User afrissim_herve already has more than 'max_user_connections' active connections at line 127 in file classes/db/DbPDO.php
*ERROR* 	v1.7.6.0	2019/09/12 - 17:23:28: Link to database cannot be established: SQLSTATE[42000] [1203] User afrissim_herve already has more than 'max_user_connections' active connections at line 127 in file classes/db/DbPDO.php
*ERROR* 	v1.7.6.0	2019/09/12 - 17:23:28: Link to database cannot be established: SQLSTATE[42000] [1203] User afrissim_herve already has more than 'max_user_connections' active connections at line 127 in file classes/db/DbPDO.php
*ERROR* 	v1.7.6.0	2019/09/12 - 17:23:28: Link to database cannot be established: SQLSTATE[42000] [1203] User afrissim_herve already has more than 'max_user_connections' active connections at line 127 in file classes/db/DbPDO.php
*ERROR* 	v1.7.6.0	2019/09/12 - 17:23:28: Link to database cannot be established: SQLSTATE[42000] [1203] User afrissim_herve already has more than 'max_user_connections' active connections at line 127 in file classes/db/DbPDO.php
*ERROR* 	v1.7.6.0	2019/09/12 - 17:23:28: Link to database cannot be established: SQLSTATE[42000] [1203] User afrissim_herve already has more than 'max_user_connections' active connections at line 127 in file classes/db/DbPDO.php
*ERROR* 	v1.7.6.0	2019/09/12 - 17:23:28: Link to database cannot be established: SQLSTATE[42000] [1203] User afrissim_herve already has more than 'max_user_connections' active connections at line 127 in file classes/db/DbPDO.php
*ERROR* 	v1.7.6.0	2019/09/12 - 17:23:28: Link to database cannot be established: SQLSTATE[42000] [1203] User afrissim_herve already has more than 'max_user_connections' active connections at line 127 in file classes/db/DbPDO.php
*ERROR* 	v1.7.6.0	2019/09/12 - 17:23:28: Link to database cannot be established: SQLSTATE[42000] [1203] User afrissim_herve already has more than 'max_user_connections' active connections at line 127 in file classes/db/DbPDO.php
*ERROR* 	v1.7.6.0	2019/09/12 - 17:23:28: Link to database cannot be established: SQLSTATE[42000] [1203] User afrissim_herve already has more than 'max_user_connections' active connections at line 127 in file classes/db/DbPDO.php
*ERROR* 	v1.7.6.0	2019/09/12 - 17:23:28: Link to database cannot be established: SQLSTATE[42000] [1203] User afrissim_herve already has more than 'max_user_connections' active connections at line 127 in file classes/db/DbPDO.php
*ERROR* 	v1.7.6.0	2019/09/12 - 17:23:28: Link to database cannot be established: SQLSTATE[42000] [1203] User afrissim_herve already has more than 'max_user_connections' active connections at line 127 in file classes/db/DbPDO.php
*ERROR* 	v1.7.6.0	2019/09/12 - 17:23:29: Link to database cannot be established: SQLSTATE[42000] [1203] User afrissim_herve already has more than 'max_user_connections' active connections at line 127 in file classes/db/DbPDO.php
*ERROR* 	v1.7.6.0	2019/09/12 - 17:23:29: Link to database cannot be established: SQLSTATE[42000] [1203] User afrissim_herve already has more than 'max_user_connections' active connections at line 127 in file classes/db/DbPDO.php
*ERROR* 	v1.7.6.0	2019/09/12 - 17:23:29: Link to database cannot be established: SQLSTATE[42000] [1203] User afrissim_herve already has more than 'max_user_connections' active connections at line 127 in file classes/db/DbPDO.php
*ERROR* 	v1.7.6.0	2019/09/12 - 17:23:47: Link to database cannot be established: SQLSTATE[42000] [1203] User afrissim_herve already has more than 'max_user_connections' active connections at line 127 in file classes/db/DbPDO.php
*ERROR* 	v1.7.6.0	2019/09/12 - 17:23:47: Link to database cannot be established: SQLSTATE[42000] [1203] User afrissim_herve already has more than 'max_user_connections' active connections at line 127 in file classes/db/DbPDO.php
*ERROR* 	v1.7.6.0	2019/09/12 - 17:23:47: Link to database cannot be established: SQLSTATE[42000] [1203] User afrissim_herve already has more than 'max_user_connections' active connections at line 127 in file classes/db/DbPDO.php
*ERROR* 	v1.7.6.0	2019/09/12 - 17:23:47: Link to database cannot be established: SQLSTATE[42000] [1203] User afrissim_herve already has more than 'max_user_connections' active connections at line 127 in file classes/db/DbPDO.php
*ERROR* 	v1.7.6.0	2019/09/12 - 17:23:47: Link to database cannot be established: SQLSTATE[42000] [1203] User afrissim_herve already has more than 'max_user_connections' active connections at line 127 in file classes/db/DbPDO.php
*ERROR* 	v1.7.6.0	2019/09/12 - 17:23:47: Link to database cannot be established: SQLSTATE[42000] [1203] User afrissim_herve already has more than 'max_user_connections' active connections at line 127 in file classes/db/DbPDO.php
*ERROR* 	v1.7.6.0	2019/09/12 - 17:23:47: Link to database cannot be established: SQLSTATE[42000] [1203] User afrissim_herve already has more than 'max_user_connections' active connections at line 127 in file classes/db/DbPDO.php
*ERROR* 	v1.7.6.0	2019/09/12 - 17:23:47: Link to database cannot be established: SQLSTATE[42000] [1203] User afrissim_herve already has more than 'max_user_connections' active connections at line 127 in file classes/db/DbPDO.php
*ERROR* 	v1.7.6.0	2019/09/12 - 17:23:47: Link to database cannot be established: SQLSTATE[42000] [1203] User afrissim_herve already has more than 'max_user_connections' active connections at line 127 in file classes/db/DbPDO.php
*ERROR* 	v1.7.6.0	2019/09/12 - 17:23:47: Link to database cannot be established: SQLSTATE[42000] [1203] User afrissim_herve already has more than 'max_user_connections' active connections at line 127 in file classes/db/DbPDO.php
*ERROR* 	v1.7.6.0	2019/09/12 - 17:23:47: Link to database cannot be established: SQLSTATE[42000] [1203] User afrissim_herve already has more than 'max_user_connections' active connections at line 127 in file classes/db/DbPDO.php
*ERROR* 	v1.7.6.0	2019/09/12 - 17:23:47: Link to database cannot be established: SQLSTATE[42000] [1203] User afrissim_herve already has more than 'max_user_connections' active connections at line 127 in file classes/db/DbPDO.php
*ERROR* 	v1.7.6.0	2019/09/12 - 17:23:47: Link to database cannot be established: SQLSTATE[42000] [1203] User afrissim_herve already has more than 'max_user_connections' active connections at line 127 in file classes/db/DbPDO.php
*ERROR* 	v1.7.6.0	2019/09/12 - 17:23:47: Link to database cannot be established: SQLSTATE[42000] [1203] User afrissim_herve already has more than 'max_user_connections' active connections at line 127 in file classes/db/DbPDO.php
*ERROR* 	v1.7.6.0	2019/09/12 - 17:23:48: Link to database cannot be established: SQLSTATE[42000] [1203] User afrissim_herve already has more than 'max_user_connections' active connections at line 127 in file classes/db/DbPDO.php
*ERROR* 	v1.7.6.0	2019/09/12 - 17:23:48: Link to database cannot be established: SQLSTATE[42000] [1203] User afrissim_herve already has more than 'max_user_connections' active connections at line 127 in file classes/db/DbPDO.php
*ERROR* 	v1.7.6.0	2019/09/12 - 17:36:58: Link to database cannot be established: SQLSTATE[42000] [1203] User afrissim_herve already has more than 'max_user_connections' active connections at line 127 in file classes/db/DbPDO.php
*ERROR* 	v1.7.6.0	2019/09/12 - 17:36:58: Link to database cannot be established: SQLSTATE[42000] [1203] User afrissim_herve already has more than 'max_user_connections' active connections at line 127 in file classes/db/DbPDO.php
*ERROR* 	v1.7.6.0	2019/09/12 - 17:36:59: Link to database cannot be established: SQLSTATE[42000] [1203] User afrissim_herve already has more than 'max_user_connections' active connections at line 127 in file classes/db/DbPDO.php
*ERROR* 	v1.7.6.0	2019/09/12 - 17:36:59: Link to database cannot be established: SQLSTATE[42000] [1203] User afrissim_herve already has more than 'max_user_connections' active connections at line 127 in file classes/db/DbPDO.php
*ERROR* 	v1.7.6.0	2019/09/12 - 17:36:59: Link to database cannot be established: SQLSTATE[42000] [1203] User afrissim_herve already has more than 'max_user_connections' active connections at line 127 in file classes/db/DbPDO.php
*ERROR* 	v1.7.6.0	2019/09/12 - 17:36:59: Link to database cannot be established: SQLSTATE[42000] [1203] User afrissim_herve already has more than 'max_user_connections' active connections at line 127 in file classes/db/DbPDO.php
*ERROR* 	v1.7.6.0	2019/09/12 - 17:36:59: Link to database cannot be established: SQLSTATE[42000] [1203] User afrissim_herve already has more than 'max_user_connections' active connections at line 127 in file classes/db/DbPDO.php
*ERROR* 	v1.7.6.0	2019/09/12 - 17:36:59: Link to database cannot be established: SQLSTATE[42000] [1203] User afrissim_herve already has more than 'max_user_connections' active connections at line 127 in file classes/db/DbPDO.php
*ERROR* 	v1.7.6.0	2019/09/12 - 17:36:59: Link to database cannot be established: SQLSTATE[42000] [1203] User afrissim_herve already has more than 'max_user_connections' active connections at line 127 in file classes/db/DbPDO.php
*ERROR* 	v1.7.6.0	2019/09/12 - 17:36:59: Link to database cannot be established: SQLSTATE[42000] [1203] User afrissim_herve already has more than 'max_user_connections' active connections at line 127 in file classes/db/DbPDO.php
*ERROR* 	v1.7.6.0	2019/09/12 - 17:36:59: Link to database cannot be established: SQLSTATE[42000] [1203] User afrissim_herve already has more than 'max_user_connections' active connections at line 127 in file classes/db/DbPDO.php
*ERROR* 	v1.7.6.0	2019/09/12 - 17:36:59: Link to database cannot be established: SQLSTATE[42000] [1203] User afrissim_herve already has more than 'max_user_connections' active connections at line 127 in file classes/db/DbPDO.php
*ERROR* 	v1.7.6.0	2019/09/12 - 17:36:59: Link to database cannot be established: SQLSTATE[42000] [1203] User afrissim_herve already has more than 'max_user_connections' active connections at line 127 in file classes/db/DbPDO.php
*ERROR* 	v1.7.6.0	2019/09/12 - 17:36:59: Link to database cannot be established: SQLSTATE[42000] [1203] User afrissim_herve already has more than 'max_user_connections' active connections at line 127 in file classes/db/DbPDO.php
*ERROR* 	v1.7.6.0	2019/09/12 - 17:36:59: Link to database cannot be established: SQLSTATE[42000] [1203] User afrissim_herve already has more than 'max_user_connections' active connections at line 127 in file classes/db/DbPDO.php
*ERROR* 	v1.7.6.0	2019/09/12 - 17:53:35: Link to database cannot be established: SQLSTATE[42000] [1203] User afrissim_herve already has more than 'max_user_connections' active connections at line 127 in file classes/db/DbPDO.php
*ERROR* 	v1.7.6.0	2019/09/12 - 17:56:31: Link to database cannot be established: SQLSTATE[42000] [1203] User afrissim_herve already has more than 'max_user_connections' active connections at line 127 in file classes/db/DbPDO.php
*ERROR* 	v1.7.6.0	2019/09/12 - 17:56:34: Link to database cannot be established: SQLSTATE[42000] [1203] User afrissim_herve already has more than 'max_user_connections' active connections at line 127 in file classes/db/DbPDO.php
*ERROR* 	v1.7.6.0	2019/09/12 - 17:56:36: Link to database cannot be established: SQLSTATE[42000] [1203] User afrissim_herve already has more than 'max_user_connections' active connections at line 127 in file classes/db/DbPDO.php
*ERROR* 	v1.7.6.0	2019/09/12 - 17:56:38: Link to database cannot be established: SQLSTATE[42000] [1203] User afrissim_herve already has more than 'max_user_connections' active connections at line 127 in file classes/db/DbPDO.php
*ERROR* 	v1.7.6.0	2019/09/12 - 18:33:36: Link to database cannot be established: SQLSTATE[42000] [1203] User afrissim_herve already has more than 'max_user_connections' active connections at line 127 in file classes/db/DbPDO.php
*ERROR* 	v1.7.6.0	2019/09/12 - 18:36:47: Link to database cannot be established: SQLSTATE[42000] [1203] User afrissim_herve already has more than 'max_user_connections' active connections at line 127 in file classes/db/DbPDO.php
